{
    "extends": [
        "tslint:latest",
        "tslint-react"
    ],
    "rules": {
        "quotemark": [
            true,
            "single",
            "jsx-double"
        ],
        "jsx-wrap-multiline": true,
        "jsx-boolean-value": false
    }
}